## Interface: 80300
## Title: Tuda Notes!
## Author: Tudelin
## Version: 0.1

##SavedVariablesPerCharacter: PandariaAssaultDoneBool, UldumAssaultVisionDoneBool, PandariaVisionDoneBool, UldumVisionDoneBool, OrgriVisionDone, StormyVisionDone
##SavedVariables: FIVEMASKS

main.lua